{
    "current_page": 1,
    "data": {
        "datas": [
            {
                "created_at": "2018/04/19</br>14:27:31",
                "game_name": "龙虎",
                "valid_bet_amount": "100",
                "win_loss_amount": 100
            },
            {
                "created_at": "2018/04/19</br>14:26:34",
                "game_name": "微投百家乐",
                "valid_bet_amount": "1000",
                "win_loss_amount": 950
            },
            {
                "created_at": "2018/04/18</br>15:42:57",
                "game_name": "微投百家乐",
                "valid_bet_amount": "1000",
                "win_loss_amount": -1000
            },
            {
                "created_at": "2018/04/18</br>15:27:54",
                "game_name": "微投百家乐",
                "valid_bet_amount": "1000",
                "win_loss_amount": -1000
            },
            {
                "created_at": "2018/04/18</br>14:13:13",
                "game_name": "微投百家乐",
                "valid_bet_amount": "1000",
                "win_loss_amount": -1000
            },
            {
                "created_at": "2018/04/18</br>12:08:12",
                "game_name": "龙虎",
                "valid_bet_amount": "100",
                "win_loss_amount": -50
            },
            {
                "created_at": "2018/04/17</br>16:14:35",
                "game_name": "龙虎",
                "valid_bet_amount": "100",
                "win_loss_amount": -100
            },
            {
                "created_at": "2018/04/17</br>16:14:25",
                "game_name": "龙虎",
                "valid_bet_amount": "100",
                "win_loss_amount": 100
            },
            {
                "created_at": "2018/04/17</br>16:14:17",
                "game_name": "龙虎",
                "valid_bet_amount": "200",
                "win_loss_amount": -200
            },
            {
                "created_at": "2018/04/17</br>16:12:56",
                "game_name": "龙虎",
                "valid_bet_amount": "200",
                "win_loss_amount": -100
            }
        ],
        "total_bet_amount": 7477.1,
        "total_win_loss": -1795.1
    },
    "first_page_url": "http://localhost/demo/bet_log?page=1",
    "from": 1,
    "last_page": 6,
    "last_page_url": "http://localhost/demo/bet_log?page=6",
    "next_page_url": "http://localhost/demo/bet_log?page=2",
    "path": "http://localhost/demo/bet_log",
    "per_page": 10,
    "prev_page_url": null,
    "to": 10,
    "total": 54
}